{
  "fromFile": true,
  "positionalData": [
    "data/positionalDataShort.txt"
  ],
  "spectralData": null,
  "coordinates": null,
  "calibration": false,
  "surfaceFunctionName": [
    "ROLO"
  ],
  "boulderFunctionName": [
    "ROLO"
  ],
  "ROLOG0": [
    "0.010"
  ],
  "ROLOG1": [
    "0.2729"
  ],
  "ROLOA0": [
    "0.07936"
  ],
  "ROLOA1": [
    "-0.002191"
  ],
  "ROLOA2": [
    "0.000037"
  ],
  "ROLOA3": [
    "0.0"
  ],
  "ROLOA4": [
    "0.0"
  ],
  "McEEpsilon": null,
  "McEKsi": null,
  "McEEta": null,
  "McEBeta": null,
  "McEGamma": null,
  "McEDelta": null,
  "target": [
    "RISv1.0"
  ],
  "proceduralDetail": [
    "True"
  ],
  "satellite": [
    "True"
  ],
  "systemRotation": [
    "180.0"
  ],
  "resolution": [
    "1024",
    "1024"
  ],
  "fov": [
    "0.174533",
    "0.174533"
  ],
  "outDir": [
    "Demo"
  ],
  "angularCoordinates": false,
  "systemScale": [
    "1"
  ],
  "imageAlbedo": [
    "0.4"
  ],
  "albedoVariations": true,
  "albedoRange": [
    "15.0"
  ],
  "noiseScale": [
    "5"
  ],
  "noiseSeed": [
    "0.0"
  ],
  "noiseDetail": [
    "15.0"
  ],
  "noiseRoughness": [
    "0.5"
  ],
  "noiseWhiteLevel": [
    "0.6"
  ],
  "noiseBlackLevel": [
    "0.45"
  ]
}