  camera_x    camera_y    camera_z       sun_x       sun_y       sun_z		rot
   4.66044	   0.00000	   2.42788	   0.00000	   3.42020	   9.39693		60
   6.66025	   0.00000	   6.00000	   0.00000	   3.42020	   9.39693		60
   6.973	   5.626	  -3.465	   0.00000	   3.42020	   9.39693	    181.362
